EESchema Schematic File Version 2
LIBS:Connectors
LIBS:Memory
LIBS:74xx
LIBS:conn
LIBS:device
LIBS:power
LIBS:ts2068cart-cache
EELAYER 25 0
EELAYER END
$Descr A 11000 8500
encoding utf-8
Sheet 1 1
Title "TS2068 EPROM Command Cartridge"
Date "2015-10-21"
Rev "2.0"
Comp "Mark J. Blair, NF6X"
Comment1 "https://github.com/NF6X/ts2068cart"
Comment2 ""
Comment3 ""
Comment4 ""
$EndDescr
$Comp
L TS2068cart J1
U 1 1 55DB9689
P 2100 2300
F 0 "J1" H 2800 2600 60  0000 L CNN
F 1 "TS2068cart" H 2800 2500 60  0000 L CNN
F 2 "NF6X_Connectors:TS2068cart" H 2350 1400 60  0001 L CNN
F 3 "" H 2100 2300 60  0000 C CNN
	1    2100 2300
	1    0    0    -1  
$EndComp
$Comp
L VCC #PWR01
U 1 1 55DB9DFB
P 2700 1850
F 0 "#PWR01" H 2700 1700 60  0001 C CNN
F 1 "VCC" H 2700 2000 60  0000 C CNN
F 2 "" H 2700 1850 60  0000 C CNN
F 3 "" H 2700 1850 60  0000 C CNN
	1    2700 1850
	1    0    0    -1  
$EndComp
$Comp
L GND #PWR02
U 1 1 55DB9E4B
P 2700 5700
F 0 "#PWR02" H 2700 5450 60  0001 C CNN
F 1 "GND" H 2700 5550 60  0000 C CNN
F 2 "" H 2700 5700 60  0000 C CNN
F 3 "" H 2700 5700 60  0000 C CNN
	1    2700 5700
	1    0    0    -1  
$EndComp
NoConn ~ 3300 4400
NoConn ~ 3300 4600
NoConn ~ 3300 4800
NoConn ~ 3300 5000
NoConn ~ 3300 5200
NoConn ~ 3300 5300
$Comp
L C C1
U 1 1 55DBA50A
P 9500 3700
F 0 "C1" H 9500 3800 40  0000 L CNN
F 1 "0.1" H 9506 3615 40  0000 L CNN
F 2 "Capacitors_ThroughHole:C_Disc_D3_P2.5" H 9538 3550 30  0001 C CNN
F 3 "" H 9500 3700 60  0000 C CNN
	1    9500 3700
	1    0    0    -1  
$EndComp
$Comp
L GND #PWR03
U 1 1 55DBA5EA
P 9500 3950
F 0 "#PWR03" H 9500 3700 60  0001 C CNN
F 1 "GND" H 9500 3800 60  0000 C CNN
F 2 "" H 9500 3950 60  0000 C CNN
F 3 "" H 9500 3950 60  0000 C CNN
	1    9500 3950
	1    0    0    -1  
$EndComp
$Comp
L VCC #PWR04
U 1 1 55DBA606
P 9500 3450
F 0 "#PWR04" H 9500 3300 60  0001 C CNN
F 1 "VCC" H 9500 3600 60  0000 C CNN
F 2 "" H 9500 3450 60  0000 C CNN
F 3 "" H 9500 3450 60  0000 C CNN
	1    9500 3450
	1    0    0    -1  
$EndComp
$Comp
L C C2
U 1 1 55DBA757
P 9850 3700
F 0 "C2" H 9850 3800 40  0000 L CNN
F 1 "0.1" H 9856 3615 40  0000 L CNN
F 2 "Capacitors_ThroughHole:C_Disc_D3_P2.5" H 9888 3550 30  0001 C CNN
F 3 "" H 9850 3700 60  0000 C CNN
	1    9850 3700
	1    0    0    -1  
$EndComp
$Comp
L GND #PWR05
U 1 1 55DBA778
P 9850 3950
F 0 "#PWR05" H 9850 3700 60  0001 C CNN
F 1 "GND" H 9850 3800 60  0000 C CNN
F 2 "" H 9850 3950 60  0000 C CNN
F 3 "" H 9850 3950 60  0000 C CNN
	1    9850 3950
	1    0    0    -1  
$EndComp
$Comp
L VCC #PWR06
U 1 1 55DBA7C4
P 9850 3450
F 0 "#PWR06" H 9850 3300 60  0001 C CNN
F 1 "VCC" H 9850 3600 60  0000 C CNN
F 2 "" H 9850 3450 60  0000 C CNN
F 3 "" H 9850 3450 60  0000 C CNN
	1    9850 3450
	1    0    0    -1  
$EndComp
$Comp
L R R1
U 1 1 55DBA9AB
P 1600 6050
F 0 "R1" V 1680 6050 40  0000 C CNN
F 1 "10k" V 1607 6051 40  0000 C CNN
F 2 "Resistors_ThroughHole:Resistor_Horizontal_RM10mm" V 1530 6050 30  0001 C CNN
F 3 "" H 1600 6050 30  0000 C CNN
	1    1600 6050
	1    0    0    -1  
$EndComp
$Comp
L ROM28 U3
U 1 1 55E0D218
P 7500 2300
F 0 "U3" H 8200 400 60  0000 L CNN
F 1 "ROM28" H 8200 300 60  0000 L CNN
F 2 "Sockets_DIP:DIP-28__600" V 8100 1550 60  0001 C CNN
F 3 "" H 7500 2300 60  0000 C CNN
	1    7500 2300
	1    0    0    -1  
$EndComp
$Comp
L 74LS156 U2
U 1 1 55E0D367
P 6100 5350
F 0 "U2" H 6050 5500 60  0000 C CNN
F 1 "74LS156" H 6100 5250 60  0000 C CNN
F 2 "Sockets_DIP:DIP-16__300" H 6100 5350 60  0001 C CNN
F 3 "" H 6100 5350 60  0000 C CNN
	1    6100 5350
	1    0    0    -1  
$EndComp
$Comp
L 74LS32 U1
U 4 1 55E0DB88
P 2350 7450
F 0 "U1" H 2350 7500 60  0000 C CNN
F 1 "74LS32" H 2350 7400 60  0000 C CNN
F 2 "Sockets_DIP:DIP-14__300" H 2350 7450 60  0001 C CNN
F 3 "" H 2350 7450 60  0000 C CNN
	4    2350 7450
	1    0    0    -1  
$EndComp
$Comp
L 74LS32 U1
U 1 1 55E0DBCE
P 4600 5750
F 0 "U1" H 4600 5800 60  0000 C CNN
F 1 "74LS32" H 4600 5700 60  0000 C CNN
F 2 "Sockets_DIP:DIP-14__300" H 4600 5750 60  0001 C CNN
F 3 "" H 4600 5750 60  0000 C CNN
	1    4600 5750
	1    0    0    -1  
$EndComp
$Comp
L 74LS32 U1
U 2 1 55E0DC1A
P 2350 6550
F 0 "U1" H 2350 6600 60  0000 C CNN
F 1 "74LS32" H 2350 6500 60  0000 C CNN
F 2 "Sockets_DIP:DIP-14__300" H 2350 6550 60  0001 C CNN
F 3 "" H 2350 6550 60  0000 C CNN
	2    2350 6550
	1    0    0    -1  
$EndComp
$Comp
L 74LS32 U1
U 3 1 55E0DC50
P 2350 7000
F 0 "U1" H 2350 7050 60  0000 C CNN
F 1 "74LS32" H 2350 6950 60  0000 C CNN
F 2 "Sockets_DIP:DIP-14__300" H 2350 7000 60  0001 C CNN
F 3 "" H 2350 7000 60  0000 C CNN
	3    2350 7000
	1    0    0    -1  
$EndComp
$Comp
L VCC #PWR07
U 1 1 55E0DD84
P 1600 5700
F 0 "#PWR07" H 1600 5550 60  0001 C CNN
F 1 "VCC" H 1600 5850 60  0000 C CNN
F 2 "" H 1600 5700 60  0000 C CNN
F 3 "" H 1600 5700 60  0000 C CNN
	1    1600 5700
	1    0    0    -1  
$EndComp
NoConn ~ 2950 6550
NoConn ~ 2950 7000
NoConn ~ 2950 7450
$Comp
L C C3
U 1 1 55E0E0D8
P 10200 3700
F 0 "C3" H 10200 3800 40  0000 L CNN
F 1 "0.1" H 10206 3615 40  0000 L CNN
F 2 "Capacitors_ThroughHole:C_Disc_D3_P2.5" H 10238 3550 30  0001 C CNN
F 3 "" H 10200 3700 60  0000 C CNN
	1    10200 3700
	1    0    0    -1  
$EndComp
$Comp
L GND #PWR08
U 1 1 55E0E0DE
P 10200 3950
F 0 "#PWR08" H 10200 3700 60  0001 C CNN
F 1 "GND" H 10200 3800 60  0000 C CNN
F 2 "" H 10200 3950 60  0000 C CNN
F 3 "" H 10200 3950 60  0000 C CNN
	1    10200 3950
	1    0    0    -1  
$EndComp
$Comp
L VCC #PWR09
U 1 1 55E0E0E4
P 10200 3450
F 0 "#PWR09" H 10200 3300 60  0001 C CNN
F 1 "VCC" H 10200 3600 60  0000 C CNN
F 2 "" H 10200 3450 60  0000 C CNN
F 3 "" H 10200 3450 60  0000 C CNN
	1    10200 3450
	1    0    0    -1  
$EndComp
$Comp
L R R2
U 1 1 55E0E6C4
P 8550 5850
F 0 "R2" V 8630 5850 40  0000 C CNN
F 1 "10k" V 8557 5851 40  0000 C CNN
F 2 "Resistors_ThroughHole:Resistor_Horizontal_RM10mm" V 8480 5850 30  0001 C CNN
F 3 "" H 8550 5850 30  0000 C CNN
	1    8550 5850
	1    0    0    -1  
$EndComp
$Comp
L VCC #PWR010
U 1 1 55E0E714
P 8550 5500
F 0 "#PWR010" H 8550 5350 60  0001 C CNN
F 1 "VCC" H 8550 5650 60  0000 C CNN
F 2 "" H 8550 5500 60  0000 C CNN
F 3 "" H 8550 5500 60  0000 C CNN
	1    8550 5500
	1    0    0    -1  
$EndComp
$Comp
L CONN_02X08 JP2
U 1 1 55E0E745
P 7950 5800
F 0 "JP2" H 7950 6250 50  0000 C CNN
F 1 "CONN_02X08" V 7950 5800 50  0000 C CNN
F 2 "Pin_Headers:Pin_Header_Straight_2x08" H 7950 4600 60  0001 C CNN
F 3 "" H 7950 4600 60  0000 C CNN
	1    7950 5800
	1    0    0    -1  
$EndComp
$Comp
L GND #PWR011
U 1 1 55E0F9E4
P 8100 4450
F 0 "#PWR011" H 8100 4200 60  0001 C CNN
F 1 "GND" H 8100 4300 60  0000 C CNN
F 2 "" H 8100 4450 60  0000 C CNN
F 3 "" H 8100 4450 60  0000 C CNN
	1    8100 4450
	1    0    0    -1  
$EndComp
$Comp
L VCC #PWR012
U 1 1 55E0FA93
P 8100 1900
F 0 "#PWR012" H 8100 1750 60  0001 C CNN
F 1 "VCC" H 8100 2050 60  0000 C CNN
F 2 "" H 8100 1900 60  0000 C CNN
F 3 "" H 8100 1900 60  0000 C CNN
	1    8100 1900
	1    0    0    -1  
$EndComp
$Comp
L CONN_02X06 JP1
U 1 1 55E10A0D
P 6150 4200
F 0 "JP1" H 6150 4550 50  0000 C CNN
F 1 "CONN_02X06" H 6150 3850 50  0000 C CNN
F 2 "Pin_Headers:Pin_Header_Straight_2x06" H 6150 3000 60  0001 C CNN
F 3 "" H 6150 3000 60  0000 C CNN
	1    6150 4200
	1    0    0    -1  
$EndComp
$Comp
L VCC #PWR013
U 1 1 55E1110F
P 5750 3900
F 0 "#PWR013" H 5750 3750 60  0001 C CNN
F 1 "VCC" H 5750 4050 60  0000 C CNN
F 2 "" H 5750 3900 60  0000 C CNN
F 3 "" H 5750 3900 60  0000 C CNN
	1    5750 3900
	1    0    0    -1  
$EndComp
Wire Wire Line
	2700 5600 2700 5700
Wire Wire Line
	2700 2000 2700 1850
Wire Wire Line
	9500 3500 9500 3450
Wire Wire Line
	9500 3900 9500 3950
Wire Wire Line
	9850 3500 9850 3450
Wire Wire Line
	9850 3900 9850 3950
Wire Wire Line
	1600 5700 1600 5800
Wire Wire Line
	1600 6300 1600 7550
Wire Wire Line
	1600 7550 1750 7550
Wire Wire Line
	1750 7350 1600 7350
Connection ~ 1600 7350
Wire Wire Line
	1750 7100 1600 7100
Connection ~ 1600 7100
Wire Wire Line
	1750 6900 1600 6900
Connection ~ 1600 6900
Wire Wire Line
	1750 6650 1600 6650
Connection ~ 1600 6650
Wire Wire Line
	1750 6450 1600 6450
Connection ~ 1600 6450
Wire Wire Line
	10200 3500 10200 3450
Wire Wire Line
	10200 3900 10200 3950
Wire Wire Line
	7500 2300 3300 2300
Wire Wire Line
	3300 2400 7500 2400
Wire Wire Line
	7500 2500 3300 2500
Wire Wire Line
	3300 2600 7500 2600
Wire Wire Line
	7500 2700 3300 2700
Wire Wire Line
	3300 2800 7500 2800
Wire Wire Line
	7500 2900 3300 2900
Wire Wire Line
	3300 3000 7500 3000
Wire Wire Line
	3300 3100 7500 3100
Wire Wire Line
	7500 3200 3300 3200
Wire Wire Line
	3300 3300 7500 3300
Wire Wire Line
	7500 3400 3300 3400
Wire Wire Line
	3300 3500 7500 3500
Wire Wire Line
	7500 3600 3300 3600
Wire Wire Line
	5350 5300 5150 5300
Wire Wire Line
	5150 5300 5150 3600
Connection ~ 5150 3600
Wire Wire Line
	5350 5400 5050 5400
Wire Wire Line
	5050 5400 5050 3700
Wire Wire Line
	3300 3700 5500 3700
Wire Wire Line
	3300 3800 5400 3800
Wire Wire Line
	4950 3800 4950 5650
Wire Wire Line
	4950 5650 5350 5650
Wire Wire Line
	5350 5750 5200 5750
Wire Wire Line
	5350 4950 4950 4950
Connection ~ 4950 4950
Wire Wire Line
	5350 5050 5250 5050
Wire Wire Line
	5250 5050 5250 5750
Connection ~ 5250 5750
Wire Wire Line
	3300 4300 3800 4300
Wire Wire Line
	3800 4300 3800 5650
Wire Wire Line
	3800 5650 4000 5650
Wire Wire Line
	3300 4700 3700 4700
Wire Wire Line
	3700 4700 3700 5850
Wire Wire Line
	3700 5850 4000 5850
Wire Wire Line
	6850 5450 7700 5450
Wire Wire Line
	7700 5550 6850 5550
Wire Wire Line
	6850 5650 7700 5650
Wire Wire Line
	7700 5750 6850 5750
Wire Wire Line
	6850 4950 7500 4950
Wire Wire Line
	7500 4950 7500 5850
Wire Wire Line
	7500 5850 7700 5850
Wire Wire Line
	6850 5050 7400 5050
Wire Wire Line
	7400 5050 7400 5950
Wire Wire Line
	7400 5950 7700 5950
Wire Wire Line
	6850 5150 7300 5150
Wire Wire Line
	7300 5150 7300 6050
Wire Wire Line
	7300 6050 7700 6050
Wire Wire Line
	7700 6150 7200 6150
Wire Wire Line
	7200 6150 7200 5250
Wire Wire Line
	7200 5250 6850 5250
Wire Wire Line
	8200 6150 8550 6150
Wire Wire Line
	8350 4800 8350 6150
Wire Wire Line
	8350 5450 8200 5450
Wire Wire Line
	8200 5550 8350 5550
Connection ~ 8350 5550
Wire Wire Line
	8200 5650 8350 5650
Connection ~ 8350 5650
Wire Wire Line
	8200 5750 8350 5750
Connection ~ 8350 5750
Wire Wire Line
	8200 5850 8350 5850
Connection ~ 8350 5850
Wire Wire Line
	8200 5950 8350 5950
Connection ~ 8350 5950
Wire Wire Line
	8200 6050 8350 6050
Connection ~ 8350 6050
Wire Wire Line
	8550 6150 8550 6100
Connection ~ 8350 6150
Wire Wire Line
	8550 5500 8550 5600
Wire Wire Line
	7500 3950 7350 3950
Wire Wire Line
	7350 3950 7350 4800
Wire Wire Line
	7350 4800 8350 4800
Connection ~ 8350 5450
Wire Wire Line
	8100 4350 8100 4450
Wire Wire Line
	8100 1900 8100 2000
Wire Wire Line
	8700 2300 8900 2300
Wire Wire Line
	8900 2300 8900 1500
Wire Wire Line
	8900 1500 1900 1500
Wire Wire Line
	1900 1500 1900 2300
Wire Wire Line
	1900 2300 2100 2300
Wire Wire Line
	2100 2400 1800 2400
Wire Wire Line
	1800 2400 1800 1400
Wire Wire Line
	1800 1400 9000 1400
Wire Wire Line
	9000 1400 9000 2400
Wire Wire Line
	9000 2400 8700 2400
Wire Wire Line
	8700 2500 9100 2500
Wire Wire Line
	9100 2500 9100 1300
Wire Wire Line
	9100 1300 1700 1300
Wire Wire Line
	1700 1300 1700 2500
Wire Wire Line
	1700 2500 2100 2500
Wire Wire Line
	2100 2600 1600 2600
Wire Wire Line
	1600 2600 1600 1200
Wire Wire Line
	1600 1200 9200 1200
Wire Wire Line
	9200 1200 9200 2600
Wire Wire Line
	9200 2600 8700 2600
Wire Wire Line
	2100 2700 1500 2700
Wire Wire Line
	1500 2700 1500 1100
Wire Wire Line
	1500 1100 9300 1100
Wire Wire Line
	9300 1100 9300 2700
Wire Wire Line
	9300 2700 8700 2700
Wire Wire Line
	8700 2800 9400 2800
Wire Wire Line
	9400 2800 9400 1000
Wire Wire Line
	9400 1000 1400 1000
Wire Wire Line
	1400 1000 1400 2800
Wire Wire Line
	1400 2800 2100 2800
Wire Wire Line
	2100 2900 1300 2900
Wire Wire Line
	1300 2900 1300 900 
Wire Wire Line
	1300 900  9500 900 
Wire Wire Line
	9500 900  9500 2900
Wire Wire Line
	9500 2900 8700 2900
Wire Wire Line
	8700 3000 9600 3000
Wire Wire Line
	9600 3000 9600 800 
Wire Wire Line
	9600 800  1200 800 
Wire Wire Line
	1200 800  1200 3000
Wire Wire Line
	1200 3000 2100 3000
Wire Wire Line
	6400 4150 6600 4150
Wire Wire Line
	6600 4150 6600 3700
Wire Wire Line
	6600 3700 7500 3700
Wire Wire Line
	6400 4450 6700 4450
Wire Wire Line
	6700 4450 6700 3800
Wire Wire Line
	6700 3800 7500 3800
Wire Wire Line
	6400 3950 6600 3950
Connection ~ 6600 3950
Wire Wire Line
	6400 4050 6600 4050
Connection ~ 6600 4050
Wire Wire Line
	6400 4250 6700 4250
Connection ~ 6700 4250
Wire Wire Line
	6400 4350 6700 4350
Connection ~ 6700 4350
Wire Wire Line
	5900 3950 5750 3950
Wire Wire Line
	5750 3900 5750 4250
Wire Wire Line
	5750 4250 5900 4250
Connection ~ 5750 3950
Wire Wire Line
	5900 4050 5500 4050
Wire Wire Line
	5500 3700 5500 4350
Connection ~ 5050 3700
Wire Wire Line
	5900 4150 3600 4150
Wire Wire Line
	3600 4150 3600 4100
Wire Wire Line
	3600 4100 3300 4100
Wire Wire Line
	5500 4350 5900 4350
Connection ~ 5500 4050
Wire Wire Line
	5900 4450 5400 4450
Wire Wire Line
	5400 4450 5400 3800
Connection ~ 4950 3800
Wire Wire Line
	3300 4000 4600 4000
Wire Wire Line
	4600 4000 4600 4700
Wire Wire Line
	4600 4700 7050 4700
Wire Wire Line
	7050 4700 7050 4050
Wire Wire Line
	7050 4050 7500 4050
Text Label 5300 1500 0    60   ~ 0
D0
Text Label 5300 1400 0    60   ~ 0
D1
Text Label 5300 1300 0    60   ~ 0
D2
Text Label 5300 1200 0    60   ~ 0
D3
Text Label 5300 1100 0    60   ~ 0
D4
Text Label 5300 1000 0    60   ~ 0
D5
Text Label 5300 900  0    60   ~ 0
D6
Text Label 5300 800  0    60   ~ 0
D7
Text Label 5300 2300 0    60   ~ 0
A0
Text Label 5300 2400 0    60   ~ 0
A1
Text Label 5300 2500 0    60   ~ 0
A2
Text Label 5300 2600 0    60   ~ 0
A3
Text Label 5300 2700 0    60   ~ 0
A4
Text Label 5300 2800 0    60   ~ 0
A5
Text Label 5300 2900 0    60   ~ 0
A6
Text Label 5300 3000 0    60   ~ 0
A7
Text Label 5300 3100 0    60   ~ 0
A8
Text Label 5300 3200 0    60   ~ 0
A9
Text Label 5300 3300 0    60   ~ 0
A10
Text Label 5300 3400 0    60   ~ 0
A11
Text Label 5300 3500 0    60   ~ 0
A12
Text Label 5300 3600 0    60   ~ 0
A13
Text Label 5300 3700 0    60   ~ 0
A14
Text Label 5300 3800 0    60   ~ 0
A15
Text Label 7600 4800 0    60   ~ 0
~CE
Text Label 3850 4000 0    60   ~ 0
~RDB
Text Label 3850 4150 0    60   ~ 0
~WRB
Text Label 3450 4300 0    60   ~ 0
~MREQB
Text Label 3450 4700 0    60   ~ 0
~ROSCS
Text Label 6900 5450 0    60   ~ 0
~B0
Text Label 6900 5550 0    60   ~ 0
~B1
Text Label 6900 5650 0    60   ~ 0
~B2
Text Label 6900 5750 0    60   ~ 0
~B3
Text Label 6900 4950 0    60   ~ 0
~B4
Text Label 6900 5050 0    60   ~ 0
~B5
Text Label 6900 5150 0    60   ~ 0
~B6
Text Label 6900 5250 0    60   ~ 0
~B7
Text Label 6800 3700 0    60   ~ 0
P27
Text Label 6800 3800 0    60   ~ 0
P1
Text Label 5250 5600 1    60   ~ 0
~SEL
Text Label 1600 7300 1    60   ~ 0
TIE1
Text Notes 4600 7550 0    60   ~ 0
Notes\n\n8k EPROM\n16k EPROM\n32k EPROM\n64k EPROM\n16k ROM\n32k ROM\n8k EEPROM (write enabled)\n8k EEPROM (write protected)\n32k EEPROM (write enabled)\n32k EEPROM (write protected)
Text Notes 3350 7550 0    60   ~ 0
ROM\n\n2764\n27128\n27256\n27512\n23128\n23256\n2864\n2864\n28256\n28256
Text Notes 3800 7550 0    60   ~ 0
Pin 1\n\nVCC\nVCC\nVCC\nA15\nn/c\nn/c\nn/c\nn/c\nA14\nA14
Text Notes 4150 7550 0    60   ~ 0
Pin 27\n\nVCC\nVCC\nA14\nA14\nVCC\nA14\n~WRB\nVCC\n~WRB\nVCC
Wire Notes Line
	3300 7600 6000 7600
Wire Notes Line
	6000 7600 6000 6400
Wire Notes Line
	6000 6400 3300 6400
Wire Notes Line
	3300 6400 3300 7600
Wire Notes Line
	3300 6650 6000 6650
Wire Notes Line
	4500 6400 4500 7600
Wire Notes Line
	4100 6400 4100 7600
Wire Notes Line
	3700 6400 3700 7600
Text Notes 7600 6500 0    60   ~ 0
JP2: 8k Bank Selects\nInstall 1 to 8\njumpers as needed
Text Notes 3900 6350 0    60   ~ 0
JP1: Configure for ROM type
Text Notes 1950 7800 0    60   ~ 0
Spare Gates
$EndSCHEMATC
