G04 #@! TF.FileFunction,Soldermask,Bot*
%FSLAX46Y46*%
G04 Gerber Fmt 4.6, Leading zero omitted, Abs format (unit mm)*
G04 Created by KiCad (PCBNEW (2015-10-10 BZR 6258)-product) date Wednesday, October 21, 2015 'PMt' 04:13:31 PM*
%MOMM*%
G01*
G04 APERTURE LIST*
%ADD10C,0.127000*%
%ADD11R,1.670000X6.496000*%
%ADD12R,2.127200X2.127200*%
%ADD13O,2.127200X2.127200*%
%ADD14R,1.797000X1.797000*%
%ADD15C,1.797000*%
%ADD16R,1.700000X1.700000*%
%ADD17C,1.700000*%
%ADD18C,2.398980*%
%ADD19C,0.254000*%
G04 APERTURE END LIST*
D10*
D11*
X10160000Y79564230D03*
X12700000Y79564230D03*
X15240000Y79564230D03*
X17780000Y79564230D03*
X20320000Y79564230D03*
X22860000Y79564230D03*
X25400000Y79564230D03*
X27940000Y79564230D03*
X30480000Y79564230D03*
X33020000Y79564230D03*
X35560000Y79564230D03*
X38100000Y79564230D03*
X40640000Y79564230D03*
X43180000Y79564230D03*
X45720000Y79564230D03*
X48260000Y79564230D03*
X50800000Y79564230D03*
X53340000Y79564230D03*
D12*
X55880000Y39370000D03*
D13*
X55880000Y36830000D03*
X53340000Y39370000D03*
X53340000Y36830000D03*
X50800000Y39370000D03*
X50800000Y36830000D03*
X48260000Y39370000D03*
X48260000Y36830000D03*
X45720000Y39370000D03*
X45720000Y36830000D03*
X43180000Y39370000D03*
X43180000Y36830000D03*
D12*
X29210000Y39370000D03*
D13*
X29210000Y36830000D03*
X26670000Y39370000D03*
X26670000Y36830000D03*
X24130000Y39370000D03*
X24130000Y36830000D03*
X21590000Y39370000D03*
X21590000Y36830000D03*
X19050000Y39370000D03*
X19050000Y36830000D03*
X16510000Y39370000D03*
X16510000Y36830000D03*
X13970000Y39370000D03*
X13970000Y36830000D03*
X11430000Y39370000D03*
X11430000Y36830000D03*
D14*
X40640000Y54610000D03*
D15*
X43180000Y54610000D03*
X45720000Y54610000D03*
X48260000Y54610000D03*
X50800000Y54610000D03*
X53340000Y54610000D03*
X55880000Y54610000D03*
X55880000Y62230000D03*
X53340000Y62230000D03*
X50800000Y62230000D03*
X48260000Y62230000D03*
X45720000Y62230000D03*
X43180000Y62230000D03*
X40640000Y62230000D03*
D14*
X12700000Y54610000D03*
D15*
X15240000Y54610000D03*
X17780000Y54610000D03*
X20320000Y54610000D03*
X22860000Y54610000D03*
X25400000Y54610000D03*
X27940000Y54610000D03*
X30480000Y54610000D03*
X30480000Y62230000D03*
X27940000Y62230000D03*
X25400000Y62230000D03*
X22860000Y62230000D03*
X20320000Y62230000D03*
X17780000Y62230000D03*
X15240000Y62230000D03*
X12700000Y62230000D03*
D14*
X48260000Y31750000D03*
D15*
X45720000Y31750000D03*
X43180000Y31750000D03*
X40640000Y31750000D03*
X38100000Y31750000D03*
X35560000Y31750000D03*
X33020000Y31750000D03*
X30480000Y31750000D03*
X27940000Y31750000D03*
X25400000Y31750000D03*
X22860000Y31750000D03*
X20320000Y31750000D03*
X17780000Y31750000D03*
X15240000Y31750000D03*
X15240000Y16510000D03*
X17780000Y16510000D03*
X20320000Y16510000D03*
X22860000Y16510000D03*
X25400000Y16510000D03*
X27940000Y16510000D03*
X30480000Y16510000D03*
X33020000Y16510000D03*
X35560000Y16510000D03*
X38100000Y16510000D03*
X40640000Y16510000D03*
X43180000Y16510000D03*
X45720000Y16510000D03*
X48260000Y16510000D03*
D16*
X7620000Y62230000D03*
D17*
X7620000Y59730000D03*
D16*
X35560000Y62230000D03*
D17*
X35560000Y59730000D03*
D16*
X54610000Y16510000D03*
D17*
X54610000Y19010000D03*
D18*
X40640000Y67310000D03*
X50800000Y67310000D03*
X7620000Y46990000D03*
X7620000Y36830000D03*
D19*
G36*
X56007000Y76708000D02*
X7493000Y76708000D01*
X7493000Y84582000D01*
X56007000Y84582000D01*
X56007000Y76708000D01*
X56007000Y76708000D01*
G37*
X56007000Y76708000D02*
X7493000Y76708000D01*
X7493000Y84582000D01*
X56007000Y84582000D01*
X56007000Y76708000D01*
M02*
