M48
;DRILL file {KiCad (2015-10-10 BZR 6258)-product} date Wednesday, October 21, 2015 'PMt' 04:13:39 PM
;FORMAT={-:-/ absolute / inch / decimal}
FMAT,2
INCH,TZ
T1C0.013
T2C0.031
T3C0.032
T4C0.032
T5C0.039
T6C0.040
%
G90
G05
M72
T1
X0.1Y2.9
X0.1Y2.7
X0.1Y2.5
X0.1Y2.3
X0.1Y2.1
X0.1Y1.9
X0.1Y1.7
X0.1Y1.5
X0.1Y1.3
X0.1Y1.1
X0.1Y0.9
X0.1Y0.7
X0.1Y0.5
X0.1Y0.3
X0.1Y0.1
X0.3Y2.9
X0.3Y2.7
X0.3Y2.1
X0.3Y1.6
X0.3Y1.3
X0.3Y1.1
X0.3Y0.9
X0.3Y0.7
X0.3Y0.495
X0.325Y0.61
X0.34Y2.96
X0.34Y1.74
X0.4Y2.4
X0.4Y1.
X0.4Y0.8
X0.44Y1.74
X0.45Y2.8
X0.45Y2.4
X0.45Y1.37
X0.455Y2.955
X0.455Y2.73
X0.475Y2.845
X0.475Y1.645
X0.49Y2.3
X0.495Y2.57
X0.5Y1.9
X0.5Y0.9
X0.5Y0.7
X0.52Y2.05
X0.525Y2.67
X0.525Y1.645
X0.54Y2.78
X0.54Y2.725
X0.55Y2.95
X0.55Y1.37
X0.56Y2.86
X0.56Y1.16
X0.57Y2.61
X0.575Y1.645
X0.58Y2.08
X0.585Y2.545
X0.595Y1.06
X0.6Y2.825
X0.6Y2.775
X0.6Y0.8
X0.625Y2.725
X0.625Y1.645
X0.64Y2.24
X0.65Y2.405
X0.65Y1.375
X0.66Y0.935
X0.67Y2.67
X0.67Y2.605
X0.675Y1.645
X0.7Y2.825
X0.7Y2.725
X0.705Y1.175
X0.725Y2.635
X0.725Y2.08
X0.725Y2.02
X0.725Y1.645
X0.74Y0.935
X0.75Y2.95
X0.75Y1.375
X0.77Y2.24
X0.775Y1.645
X0.8Y2.925
X0.8Y2.8
X0.8Y1.1
X0.825Y1.645
X0.83Y2.02
X0.845Y0.855
X0.85Y2.975
X0.85Y2.8985
X0.85Y2.25
X0.85Y1.375
X0.875Y1.645
X0.9Y2.8985
X0.9Y2.8
X0.9Y2.755
X0.9Y2.67
X0.9Y2.605
X0.9Y2.52
X0.91Y2.015
X0.925Y1.645
X0.925Y0.95
X0.95Y2.85
X0.95Y1.375
X0.975Y1.645
X0.985Y2.8
X0.985Y2.755
X0.985Y2.67
X0.985Y2.605
X1.Y2.85
X1.Y2.55
X1.Y1.1
X1.025Y2.345
X1.025Y1.645
X1.03Y2.02
X1.05Y2.975
X1.05Y2.8235
X1.05Y1.375
X1.05Y0.715
X1.075Y2.345
X1.075Y1.645
X1.085Y2.67
X1.085Y2.61
X1.1Y2.75
X1.1Y2.525
X1.1Y1.
X1.1Y0.8
X1.105Y2.02
X1.125Y1.645
X1.125Y1.375
X1.135Y2.345
X1.15Y2.975
X1.15Y2.925
X1.155Y0.715
X1.175Y2.82
X1.175Y2.73
X1.175Y2.67
X1.175Y2.615
X1.175Y1.645
X1.175Y1.375
X1.2Y2.95
X1.2Y2.575
X1.225Y2.82
X1.225Y2.73
X1.225Y2.67
X1.225Y1.645
X1.225Y1.375
X1.25Y2.9
X1.25Y1.85
X1.265Y1.9
X1.275Y1.645
X1.275Y1.375
X1.2765Y2.85
X1.3Y2.725
X1.3Y2.67
X1.31Y2.9
X1.315Y2.35
X1.33Y1.965
X1.33Y1.645
X1.335Y1.375
X1.345Y2.945
X1.4Y2.95
X1.4Y2.55
X1.425Y2.595
X1.435Y2.235
X1.435Y2.17
X1.435Y2.105
X1.435Y2.015
X1.435Y1.885
X1.435Y1.815
X1.435Y1.375
X1.44Y1.645
X1.45Y2.825
X1.45Y2.775
X1.475Y2.9
X1.5Y2.8515
X1.55Y2.95
X1.55Y2.878
X1.575Y1.85
X1.6Y2.95
X1.6Y2.35
X1.6Y2.015
X1.6Y1.645
X1.615Y1.465
X1.7Y2.675
X1.7Y2.52
X1.7Y2.375
X1.7Y2.275
X1.7Y2.05
X1.745Y2.015
X1.75Y2.11
X1.75Y1.605
X1.75Y1.39
X1.79Y2.525
X1.8Y2.775
X1.8Y2.375
X1.8Y2.275
X1.8Y2.075
X1.8Y1.
X1.8Y0.8
X1.805Y2.66
X1.85Y2.325
X1.855Y2.605
X1.865Y2.86
X1.865Y2.79
X1.875Y2.675
X1.885Y2.015
X1.9Y1.9
X1.9Y1.7
X1.9Y1.1
X1.9Y0.9
X1.93Y2.92
X1.95Y1.605
X1.95Y1.39
X1.96Y2.84
X1.96Y2.01
X1.965Y2.52
X2.Y2.8
X2.03Y0.705
X2.03Y0.595
X2.04Y2.01
X2.05Y2.85
X2.05Y1.605
X2.05Y1.39
X2.085Y2.52
X2.1Y2.9
X2.1Y2.8
X2.1Y2.675
X2.1Y1.8
X2.1Y1.2
X2.1Y1.
X2.15Y2.95
X2.15Y2.85
X2.15Y1.385
X2.16Y2.685
X2.2Y2.9
X2.2Y2.8
X2.2Y2.3
X2.2Y1.9
X2.2Y1.7
X2.2Y1.3
X2.2Y1.1
X2.2Y0.9
X2.245Y2.665
X2.25Y2.95
X2.25Y2.85
X2.25Y2.505
X2.255Y1.615
X2.255Y1.385
X2.3Y2.9
X2.3Y2.8
X2.345Y2.505
X2.345Y1.615
X2.345Y1.385
X2.35Y2.95
X2.35Y2.85
X2.35Y2.75
X2.4Y2.9
X2.4Y2.8
X2.4Y2.7
X2.4Y2.5
X2.4Y2.3
X2.4Y2.1
X2.4Y1.9
X2.4Y1.7
X2.4Y1.5
X2.4Y1.3
X2.4Y1.1
X2.4Y0.9
X2.4Y0.7
X2.4Y0.5
X2.4Y0.3
X2.4Y0.1
X2.45Y2.95
X2.45Y2.85
X2.45Y2.75
T2
X0.3Y2.45
X1.4Y2.45
X2.15Y0.65
T3
X0.3Y2.3516
X1.4Y2.3516
X2.15Y0.7484
T4
X0.5Y2.45
X0.5Y2.15
X0.6Y2.45
X0.6Y2.15
X0.6Y1.25
X0.6Y0.65
X0.7Y2.45
X0.7Y2.15
X0.7Y1.25
X0.7Y0.65
X0.8Y2.45
X0.8Y2.15
X0.8Y1.25
X0.8Y0.65
X0.9Y2.45
X0.9Y2.15
X0.9Y1.25
X0.9Y0.65
X1.Y2.45
X1.Y2.15
X1.Y1.25
X1.Y0.65
X1.1Y2.45
X1.1Y2.15
X1.1Y1.25
X1.1Y0.65
X1.2Y2.45
X1.2Y2.15
X1.2Y1.25
X1.2Y0.65
X1.3Y1.25
X1.3Y0.65
X1.4Y1.25
X1.4Y0.65
X1.5Y1.25
X1.5Y0.65
X1.6Y2.45
X1.6Y2.15
X1.6Y1.25
X1.6Y0.65
X1.7Y2.45
X1.7Y2.15
X1.7Y1.25
X1.7Y0.65
X1.8Y2.45
X1.8Y2.15
X1.8Y1.25
X1.8Y0.65
X1.9Y2.45
X1.9Y2.15
X1.9Y1.25
X1.9Y0.65
X2.Y2.45
X2.Y2.15
X2.1Y2.45
X2.1Y2.15
X2.2Y2.45
X2.2Y2.15
T5
X0.3Y1.85
X0.3Y1.45
X1.6Y2.65
X2.Y2.65
T6
X0.45Y1.55
X0.45Y1.45
X0.55Y1.55
X0.55Y1.45
X0.65Y1.55
X0.65Y1.45
X0.75Y1.55
X0.75Y1.45
X0.85Y1.55
X0.85Y1.45
X0.95Y1.55
X0.95Y1.45
X1.05Y1.55
X1.05Y1.45
X1.15Y1.55
X1.15Y1.45
X1.7Y1.55
X1.7Y1.45
X1.8Y1.55
X1.8Y1.45
X1.9Y1.55
X1.9Y1.45
X2.Y1.55
X2.Y1.45
X2.1Y1.55
X2.1Y1.45
X2.2Y1.55
X2.2Y1.45
T0
M30
